Sex,Division,WeightClassKg,Name,BodyweightKg,Squat1Kg,Squat2Kg,Squat3Kg,Best3SquatKg,Bench1Kg,Bench2Kg,Bench3Kg,Best3BenchKg,Deadlift1Kg,Deadlift2Kg,Deadlift3Kg,Best3DeadliftKg,TotalKg,Event,Equipment,Place
F,Open,57,Plentauskaitė Regina,52,87.5,92.5,95,95,42.5,47.5,-50,47.5,107.5,115,120,120,262.5,SBD,Raw,1
F,Open,57,Pivoriūnaitė Ingrida,50.8,85,-92.5,-92.5,85,57.5,-65,-65,57.5,102.5,112.5,,112.5,255,SBD,Raw,2
F,Open,57,Nikolenkaitė Viktorija,55.4,-70,70,,70,50,-55,,50,100,,,100,220,SBD,Raw,3
F,Open,57,Šalkauskaitė Rūta,56,70,75,-80,75,35,40,-42.5,40,80,90,,90,205,SBD,Raw,4
F,Open,63,Kanapeckaitė Aistė,61.5,90,97.5,102.5,102.5,57.5,-62.5,-62.5,57.5,120,130,142.5,142.5,302.5,SBD,Raw,1
F,Open,63,Balukonytė Ieva,62.9,-90,95,-100,95,52.5,57.5,-60,57.5,110,120,125,125,277.5,SBD,Raw,2
F,Open,63,Kveselytė Aistė,58.6,90,95,100,100,52.5,57.5,-60,57.5,90,100,-110,100,257.5,SBD,Raw,3
F,Open,63,Valentaitė Rimantė,59.1,65,70,-77.5,70,42.5,45,,45,-100,105,112.5,112.5,227.5,SBD,Raw,4
F,Open,63,Kilikevičiūtė Austėja,62.6,65,72.5,-75,72.5,30,35,37.5,37.5,80,90,-100,90,200,SBD,Raw,5
F,Open,72,Gasiūnaitė Eglė,66.4,95,100,-105,100,57.5,62.5,65,65,-105,115,-130,115,280,SBD,Raw,1
F,Open,72,Motiejūnaitė Kotryna,67.9,90,95,-97.5,95,52.5,57.5,-60,57.5,100,105,,105,257.5,SBD,Raw,2
F,Open,72+,Meškelevičiūtė Emilė,72.9,85,92.5,97.5,97.5,45,50,-55,50,115,122.5,130,130,277.5,SBD,Raw,1
F,Open,72+,Spundzevičiūtė Greta,78.7,80,90,97.5,97.5,55,60,-65,60,90,110,-130,110,267.5,SBD,Raw,2
M,Open,66,Valčiukas Egidijus,57.6,200,222.5,230,230,115,120,125,125,135,145,147.5,147.5,502.5,SBD,Raw,1
M,Open,66,Baida Antanas,64.9,152.5,162.5,167.5,167.5,105,112.5,-115,112.5,170,177.5,-182.5,177.5,457.5,SBD,Raw,2
M,Open,66,Pupeikis Ričardas,65.4,160,165,-170,165,100,-105,-105,100,170,180,-185,180,445,SBD,Raw,3
M,Open,66,Antanavičius Ignas,65.1,105,115,-125,115,60,70,-75,70,110,120,127.5,127.5,312.5,SBD,Raw,4
M,Open,66,Siniakov Gleb,55.6,80,90,-100,90,65,70,-75,70,120,130,140,140,300,SBD,Raw,5
M,Open,74,Pupinis Paulius,73.4,-190,190,-200,190,135,142.5,-147.5,142.5,225,235,-245,235,567.5,SBD,Raw,1
M,Open,74,Kripas Laurynas,72.6,190,-195,-195,190,120,125,-130,125,215,230,240,240,555,SBD,Raw,2
M,Open,74,Kondratenko Arminas,73.6,140,152.5,157.5,157.5,105,110,117.5,117.5,150,170,180,180,455,SBD,Raw,3
M,Open,74,Engelaitis Rytis,74,140,-150,160,160,100,110,120,120,150,160,170,170,450,SBD,Raw,4
M,Open,74,Macijauskas Tomas,69.6,130,145,155,155,95,-100,-100,95,150,160,170,170,420,SBD,Raw,5
M,Open,83,Gumuliauskas Mangirdas,81.9,205,215,-220,215,132.5,137.5,140,140,240,250,260,260,615,SBD,Raw,1
M,Open,83,Margevičius Žilvinas,79.4,200,207.5,215,215,120,130,135,135,220,230,250,250,600,SBD,Raw,2
M,Open,83,Malevskis Klaudijus,82.1,190,197.5,-205,197.5,157.5,165,170,170,210,220,232.5,232.5,600,SBD,Raw,3
M,Open,83,Dovydėnas Erikas,80.3,185,192.5,-195,192.5,130,135,-137.5,135,210,217.5,225,225,552.5,SBD,Raw,4
M,Open,83,Damkus Rokas,81.3,155,170,-180,170,135,-142.5,-142.5,135,200,220,230,230,535,SBD,Raw,5
M,Open,83,Ranauskas Mindaugas,77.7,160,-170,170,170,110,-120,120,120,175,185,200,200,490,SBD,Raw,6
M,Open,83,Savid Yusef,81.4,180,190,200,200,115,122.5,-127.5,122.5,-205,-205,-215,,,SBD,Raw,DQ
M,Open,93,Janulis Mindaugas,90.1,200,212.5,222.5,222.5,140,145,147.5,147.5,250,-262.5,-262.5,250,620,SBD,Raw,1
M,Open,93,Žilys Aivaras,89.5,190,200,205,205,145,155,,155,200,210,212.5,212.5,572.5,SBD,Raw,2
M,Open,93,Baltrušaitis Mantas,91.3,185,195,205,205,145,152.5,157.5,157.5,190,200,210,210,572.5,SBD,Raw,3
M,Open,93,Veverskis Rytis,90.6,185,195,200,200,125,130,-132.5,130,220,225,232.5,232.5,562.5,SBD,Raw,4
M,Open,93,Vasiliauskas Povilas,91.9,170,180,190,190,140,147.5,152.5,152.5,190,210,-220,210,552.5,SBD,Raw,5
M,Open,93,Urbanavičius Karolis,92.8,190,200,205,205,130,-135,-135,130,200,215,-240,215,550,SBD,Raw,6
M,Open,93,Matyžonok Dainius,91.7,155,165,170,170,-125,127.5,135,135,200,210,220,220,525,SBD,Raw,7
M,Open,93,Gašpuitis Haris,88,160,167.5,175,175,130,135,137.5,137.5,175,185,190,190,502.5,SBD,Raw,8
M,Open,93,Vėjaikis Aivaras,92,170,180,190,190,130,135,140,140,-170,-170,170,170,500,SBD,Raw,9
M,Open,93,Sindikevičius Ruslanas,86.9,160,167.5,172.5,172.5,120,125,,125,180,-190,-195,180,477.5,SBD,Raw,10
M,Open,93,Kononovas Tomas,92,150,160,-170,160,115,122.5,-125,122.5,170,185,-190,185,467.5,SBD,Raw,11
M,Open,105,Stasiulis Jokūbas,103.6,265,275,280,280,195,202.5,207.5,207.5,-290,290,-311,290,777.5,SBD,Raw,1
M,Open,105,Černiauskas Rokas,99.5,250,260,-270,260,175,-185,185,185,250,265,280,280,725,SBD,Raw,2
M,Open,105,Kuliešius Šarūnas,103.5,-180,190,-205,190,150,-155,-155,150,205,215,225,225,565,SBD,Raw,3
M,Open,105,Grubas Valdas,93.3,175,185,190,190,125,135,-137.5,135,220,235,-250,235,560,SBD,Raw,4
M,Open,105,Baršauskas Kristofas,93.1,160,-170,185,185,-100,105,115,115,190,210,230,230,530,SBD,Raw,5
M,Open,105,Grušas Mantas,101.5,155,170,180,180,140,147.5,-152.5,147.5,170,180,,180,507.5,SBD,Raw,6
M,Open,105,Sužiedelis Dovydas,103.2,-160,170,-185,170,100,110,,110,170,185,195,195,475,SBD,Raw,7
M,Open,105,Jucius Džiugas,101.3,270,-275,275,275,180,185,-190,185,280,290,-300,290,,SBD,Raw,DQ
M,Open,120,Skikas Saulius,117.9,277.5,285,290,290,210,220,-230,220,300,315,-326,315,825,SBD,Raw,1
M,Open,120,Glušonok Arnoldas,115,190,200,210,210,160,170,-172.5,170,190,,,190,570,SBD,Raw,2
M,Open,120+,Jaras Mindaugas,127.5,220,240,-260,240,210,220,-225,220,290,300,320,320,780,SBD,Raw,1
M,Open,120+,Tarutis Pijus,159.5,260,275,285,285,170,177.5,185,185,260,280,-300,280,750,SBD,Raw,2
M,Open,120+,Brusokas Martynas,145.5,230,245,255,255,170,180,-187.5,180,270,285,-300,285,720,SBD,Raw,3
M,Open,120+,Rindeikis Nedas,131.8,150,,,150,100,,,100,150,,,150,400,SBD,Raw,4
