Division,WeightClassKg,Place,Name,Team,BodyweightKg,Best3SquatKg,Best3BenchKg,Best3DeadliftKg,TotalKg,Equipment,Event,Sex
Boys,51.71,1,Cesar Casas,Hidalgo Early College,50.8,176.9,104.33,185.97,467.2,Single-ply,SBD,M
Boys,51.71,2,Jerry Lopez,Port Isabel,50.98,181.44,90.72,165.56,437.72,Single-ply,SBD,M
Boys,51.71,3,Diego Pena,Roma,51.62,163.29,90.72,172.37,426.38,Single-ply,SBD,M
Boys,55.79,4,Hector Villegas,Roma,51.89,136.08,68.04,149.69,353.8,Single-ply,SBD,M
Boys,51.71,5,David Garcia,Pharr Valley View,44.09,113.4,70.31,145.15,328.85,Single-ply,SBD,M
Boys,51.71,6,Leo Tanguma,Rio Grande City Grulla,51.44,113.4,68.04,131.54,312.98,Single-ply,SBD,M
Boys,51.71,7,Diego Cantu,Roma,50.62,108.86,47.63,120.2,276.69,Single-ply,SBD,M
Boys,51.71,8,Dillon Rodiguez,Edcouch-Elsa,48.35,90.72,63.5,99.79,254.01,Single-ply,SBD,M
Boys,51.71,9,Brooks Guzman,Weslaco East,38.37,86.18,47.63,113.4,247.21,Single-ply,SBD,M
Boys,51.71,10,Jose R Cantu,Rio Grande City,45.54,77.11,38.56,95.25,210.92,Single-ply,SBD,M
Boys,55.79,DQ,Manuel Briones,Pharr Valley View,51.8,122.47,68.04,,,Single-ply,SBD,M
Boys,55.79,1,Rigo Pena,Pharr Valley View,55.02,192.78,127.01,185.97,505.76,Single-ply,SBD,M
Boys,55.79,2,Omar Puente,Los Fresnos,55.7,174.63,124.74,201.85,501.22,Single-ply,SBD,M
Boys,55.79,3,Rogelio Lozano,Roma,55.61,131.54,72.57,147.42,351.53,Single-ply,SBD,M
Boys,55.79,4,Aaron Vasquez,Edcouch-Elsa,55.07,120.2,70.31,129.27,319.78,Single-ply,SBD,M
Boys,55.79,5,Juan Ayala,Weslaco,54.61,108.86,56.7,142.88,308.44,Single-ply,SBD,M
Boys,55.79,6,Carlos García,Weslaco East,54.16,102.06,65.77,136.08,303.91,Single-ply,SBD,M
Boys,55.79,7,Billy Guerra,La Feria,54.79,111.13,52.16,106.59,269.89,Single-ply,SBD,M
Boys,59.87,1,Rey Fernandez,Donna,59.6,174.63,88.45,183.7,446.79,Single-ply,SBD,M
Boys,59.87,2,Juan Delgado,Roma,59.6,167.83,92.99,174.63,435.45,Single-ply,SBD,M
Boys,59.87,3,Robert Aranda,Mission Veterans Memorial,59.87,176.9,83.91,154.22,415.04,Single-ply,SBD,M
Boys,59.87,4,Gus Maldonado,Rio Grande City,59.87,151.95,81.65,167.83,401.43,Single-ply,SBD,M
Boys,59.87,5,Josh Garcia,Weslaco,58.88,147.42,81.65,165.56,394.63,Single-ply,SBD,M
Boys,67.13,6,Jonathan Gonzalez,Port Isabel,60.06,163.29,74.84,154.22,392.36,Single-ply,SBD,M
Boys,59.87,7,Jordan Aguilar,Mercedes,59.15,156.49,83.91,149.69,390.09,Single-ply,SBD,M
Boys,59.87,8,Christian Gonzalez,Weslaco,59.15,151.95,83.91,145.15,381.02,Single-ply,SBD,M
Boys,59.87,9,Victor Acosta,Pharr Valley View,58.97,136.08,79.38,142.88,358.34,Single-ply,SBD,M
Boys,59.87,DQ,Luis Marina,Mission Sharyland,58.97,,,,,Single-ply,SBD,M
Boys,67.13,1,Robert Cantu,Mission Sharyland,66.32,226.8,124.74,215.46,566.99,Single-ply,SBD,M
Boys,67.13,2,Edward Palomin,Weslaco,66.32,217.72,122.47,204.12,544.31,Single-ply,SBD,M
Boys,67.13,3,Jose Bazaldua,Mercedes,66.59,217.72,127.01,199.58,544.31,Single-ply,SBD,M
Boys,67.13,4,Carlos Castillo,Los Fresnos,66.5,204.12,117.93,208.65,530.7,Single-ply,SBD,M
Boys,67.13,5,Joe Torres,Los Fresnos,66.77,201.85,124.74,199.58,526.17,Single-ply,SBD,M
Boys,67.13,6,Julian Morales,Weslaco,67.04,199.58,99.79,197.31,496.68,Single-ply,SBD,M
Boys,67.13,7,Joe Rocafuerte,Los Fresnos,65.86,170.1,104.33,181.44,455.86,Single-ply,SBD,M
Boys,67.13,8,Saul Cuellar,Weslaco East,65.32,181.44,102.06,165.56,449.06,Single-ply,SBD,M
Boys,74.84,9,Oliver Salander,Port Isabel,67.31,136.08,86.18,154.22,376.48,Single-ply,SBD,M
Boys,67.13,DQ,Jerry Pena,Rio Grande City,60.51,,,,,Single-ply,SBD,M
Boys,67.13,DQ,Anthony Garcia,Mercedes,67.13,,,,,Single-ply,SBD,M
Boys,74.84,1,Abram Guerra,Rio Grande City,73.94,260.82,156.49,249.48,666.78,Single-ply,SBD,M
Boys,74.84,2,Miguel Galvan,Pharr Valley View,74.39,226.8,156.49,217.72,601.01,Single-ply,SBD,M
Boys,74.84,3,Esteban Flores,Pharr Valley View,73.48,222.26,131.54,244.94,598.74,Single-ply,SBD,M
Boys,74.84,4,Ross Torres,La Feria,73.75,208.65,129.27,231.33,569.26,Single-ply,SBD,M
Boys,74.84,5,Brian Sanchez,Weslaco East,74.12,210.92,106.59,206.38,523.9,Single-ply,SBD,M
Boys,74.84,6,Marco Lopez,Donna,70.58,206.38,111.13,172.37,489.88,Single-ply,SBD,M
Boys,74.84,7,Pedro Gonzalez,Port Isabel,72.48,179.17,108.86,181.44,469.47,Single-ply,SBD,M
Boys,74.84,8,Adonis Juarez,Mission,67.95,179.17,102.06,174.63,455.86,Single-ply,SBD,M
Boys,74.84,9,Adan Cantu,Rio Grande City Grulla,74.12,185.97,99.79,147.42,433.18,Single-ply,SBD,M
Boys,74.84,10,Lenny Villanueva,Mercedes,72.39,156.49,83.91,172.37,412.77,Single-ply,SBD,M
Boys,74.84,11,Adrian Garcia,Roma,74.21,154.22,83.91,154.22,392.36,Single-ply,SBD,M
Boys,74.84,12,Ricardo Vela,Hidalgo Early College,69.58,142.88,79.38,154.22,376.48,Single-ply,SBD,M
Boys,74.84,13,Jonathan Munoz,Los Fresnos,67.77,131.54,95.25,124.74,351.53,Single-ply,SBD,M
Boys,74.84,14,David Yanes,Port Isabel,68.49,131.54,65.77,136.08,333.39,Single-ply,SBD,M
Boys,74.84,DQ,Jerry Rodriguez,Pharr Valley View,73.94,181.44,,,,Single-ply,SBD,M
Boys,74.84,DQ,Frank Jimenez,Pharr Valley View,71.76,97.52,,,,Single-ply,SBD,M
Boys,74.84,DQ,Diego Garcia,Edcouch-Elsa,74.03,170.1,,,,Single-ply,SBD,M
Boys,74.84,DQ,Tristian Salinas,Santa Rosa,69.13,208.65,145.15,208.65,,Single-ply,SBD,M
Boys,82.1,1,Miguel Pena,Pharr Valley View,81.65,260.82,167.83,247.21,675.85,Single-ply,SBD,M
Boys,82.1,2,Luis Munoz #4,Hidalgo Early College,81.65,281.23,142.88,226.8,650.91,Single-ply,SBD,M
Boys,82.1,3,Chris Belmares,Weslaco East,81.37,244.94,140.61,238.14,623.69,Single-ply,SBD,M
Boys,82.1,4,Jose de la Rosa,Roma,81.01,242.67,136.08,231.33,610.08,Single-ply,SBD,M
Boys,82.1,5,Robert Trevino,Edcouch-Elsa,81.19,229.06,115.67,217.72,562.45,Single-ply,SBD,M
Boys,82.1,6,Canales Erasmo,Rio Grande City,80.92,197.31,140.61,201.85,539.77,Single-ply,SBD,M
Boys,82.1,7,Matt Martinez,Port Isabel,78.02,229.06,124.74,183.7,537.51,Single-ply,SBD,M
Boys,82.1,8,Armin Solis,Rio Grande City,80.38,215.46,136.08,183.7,535.24,Single-ply,SBD,M
Boys,82.1,9,RJ Garza,Mercedes,80.47,222.26,120.2,174.63,517.1,Single-ply,SBD,M
Boys,82.1,10,Abel Rangel,La Feria,76.48,204.12,99.79,206.38,510.29,Single-ply,SBD,M
Boys,82.1,11,Alex Melendez,Pharr Valley View,81.19,176.9,120.2,210.92,508.02,Single-ply,SBD,M
Boys,82.1,12,Mike Cadena,Donna,80.01,183.7,104.33,192.78,480.81,Single-ply,SBD,M
Boys,82.1,13,Rene Gutierrez,Pharr Valley View,82.1,201.85,102.06,163.29,467.2,Single-ply,SBD,M
Boys,82.1,14,Elias Sierra,Weslaco East,78.74,190.51,92.99,174.63,458.13,Single-ply,SBD,M
Boys,82.1,15,Cristian Hoshino,Port Isabel,80.29,181.44,97.52,174.63,453.59,Single-ply,SBD,M
Boys,82.1,16,Isai Perez,Rio Grande City Grulla,81.83,183.7,102.06,165.56,451.32,Single-ply,SBD,M
Boys,82.1,17,Armando Garza,La Feria,76.57,172.37,97.52,179.17,449.06,Single-ply,SBD,M
Boys,82.1,18,Rene Gonzalez,Los Fresnos,77.93,140.61,74.84,147.42,362.87,Single-ply,SBD,M
Boys,82.1,DQ,Andrew Cura,Mission Sharyland,82.1,229.06,,,,Single-ply,SBD,M
Boys,82.1,DQ,Marco Villarreal,Mission Sharyland,79.38,208.65,,,,Single-ply,SBD,M
Boys,82.1,DQ,Octavio Alaniz,Rio Grande City Grulla,77.38,120.2,,,,Single-ply,SBD,M
Boys,82.1,DQ,Greg Diaz,Rio Grande City,77.93,158.76,,,,Single-ply,SBD,M
Boys,82.1,DQ,Justin Guerra,Rio Grande City,78.2,249.48,,,,Single-ply,SBD,M
Boys,99.79,1,Danny Mora,Mission Sharyland,89.9,258.55,133.81,249.48,641.83,Single-ply,SBD,M
Boys,89.81,2,John Arevalo,Weslaco East,89.09,254.01,127.01,240.4,621.42,Single-ply,SBD,M
Boys,89.81,3,Jose Pitones,Pharr Valley View,88.95,226.8,136.08,249.48,612.35,Single-ply,SBD,M
Boys,89.81,4,Arnulfo Marin,Pharr Valley View,89.36,249.48,122.47,217.72,589.67,Single-ply,SBD,M
Boys,89.81,5,Lee Gamez,Mercedes,89.81,206.38,129.27,204.12,539.77,Single-ply,SBD,M
Boys,89.81,6,Max Gonzalez,Weslaco,85,170.1,108.86,183.7,462.66,Single-ply,SBD,M
Boys,89.81,7,Juan Valera,Edcouch-Elsa,85.64,174.63,104.33,183.7,462.66,Single-ply,SBD,M
Boys,89.81,8,Marco Gutierrez,La Feria,85.64,181.44,104.33,172.37,458.13,Single-ply,SBD,M
Boys,89.81,9,Mark Salinas,Rio Grande City Grulla,88,158.76,81.65,151.95,392.36,Single-ply,SBD,M
Boys,89.81,10,Andrew Abeldano,Weslaco East,85.73,156.49,113.4,115.67,385.55,Single-ply,SBD,M
Boys,89.81,DQ,Charles Ybarra,Mission,87,,,,,Single-ply,SBD,M
Boys,89.81,DQ,Benigno Medina,Mission Veterans Memorial,84.91,142.88,,,,Single-ply,SBD,M
Boys,89.81,DQ,Richard Rodriguez,Mission Veterans Memorial,88.18,142.88,,,,Single-ply,SBD,M
Boys,89.81,DQ,Jose Cardenas,Mission Veterans Memorial,84.46,,,,,Single-ply,SBD,M
Boys,89.81,DQ,Ernesto Tafolla,Weslaco,89.18,263.08,142.88,,,Single-ply,SBD,M
Boys,99.79,1,Luis Hernandez,Edcouch-Elsa,98.25,276.69,185.97,267.62,730.28,Single-ply,SBD,M
Boys,99.79,2,Victor Rodriguez,Pharr Valley View,98.88,263.08,142.88,256.28,662.24,Single-ply,SBD,M
Boys,99.79,3,Victor Aguilar,Mercedes,97.16,238.14,145.15,231.33,614.62,Single-ply,SBD,M
Boys,99.79,4,Mario Vera,Edcouch-Elsa,97.79,242.67,133.81,224.53,601.01,Single-ply,SBD,M
Boys,99.79,5,Joe Perez,Los Fresnos,96.62,238.14,142.88,190.51,571.53,Single-ply,SBD,M
Boys,99.79,6,Isaac Carrizales,La Feria,97.07,217.72,149.69,195.04,562.45,Single-ply,SBD,M
Boys,109.77,7,Jc Lopez,Donna,99.97,222.26,127.01,181.44,530.7,Single-ply,SBD,M
Boys,99.79,8,Alvaro Torres,Weslaco,93.71,188.24,108.86,183.7,480.81,Single-ply,SBD,M
Boys,99.79,9,Andres Rodriguez,Mercedes,96.34,181.44,83.91,181.44,446.79,Single-ply,SBD,M
Boys,99.79,10,Israel Torres,La Feria,92.08,158.76,83.91,158.76,401.43,Single-ply,SBD,M
Boys,99.79,DQ,Jesus Roiz,Rio Grande City Grulla,95.89,195.04,136.08,,,Single-ply,SBD,M
Boys,99.79,DQ,Fernando Rivera #2,Port Isabel,94.62,,,,,Single-ply,SBD,M
Boys,109.77,1,Juan Garcia,Los Fresnos,108.32,238.14,165.56,226.8,630.49,Single-ply,SBD,M
Boys,109.77,2,Bobby Gonzales,Raymondville,104.33,247.21,149.69,224.53,621.42,Single-ply,SBD,M
Boys,109.77,3,Ruben Rubio,Mercedes,101.6,249.48,147.42,222.26,619.15,Single-ply,SBD,M
Boys,109.77,4,Mike Garza,Edcouch-Elsa,106.41,251.74,136.08,231.33,619.15,Single-ply,SBD,M
Boys,109.77,5,Eduardo Fraire,Donna,100.33,249.48,111.13,226.8,587.4,Single-ply,SBD,M
Boys,109.77,6,Jose Juarez,Weslaco,102.15,195.04,115.67,213.19,523.9,Single-ply,SBD,M
Boys,109.77,7,Armando Martinez,Weslaco East,104.78,215.46,113.4,192.78,521.63,Single-ply,SBD,M
Boys,109.77,8,Eli Escaname,Mission Sharyland,102.51,190.51,124.74,181.44,496.68,Single-ply,SBD,M
Boys,109.77,9,Esteban Reyes,Weslaco,102.33,176.9,111.13,181.44,469.47,Single-ply,SBD,M
Boys,109.77,10,Jesus Anaya,Weslaco,103.78,192.78,95.25,181.44,469.47,Single-ply,SBD,M
Boys,109.77,11,Jaime Moreno,Donna,107.23,181.44,104.33,151.95,437.72,Single-ply,SBD,M
Boys,109.77,12,Roman Garza,Rio Grande City Grulla,109.68,154.22,102.06,154.22,410.5,Single-ply,SBD,M
Boys,109.77,DQ,Raul Villarreal,Weslaco East,104.51,142.88,,,,Single-ply,SBD,M
Boys,109.77,DQ,Miguel Gara,Mission Veterans Memorial,103.87,149.69,,,,Single-ply,SBD,M
Boys,124.74,1,Roy Valdez,Los Fresnos,115.03,294.84,163.29,276.69,734.82,Single-ply,SBD,M
Boys,124.74,2,John Rodriguez,Edcouch-Elsa,121.93,269.89,172.37,265.35,707.6,Single-ply,SBD,M
Boys,124.74,3,Christian Guajardo,Pharr Valley View,123.38,265.35,183.7,254.01,703.07,Single-ply,SBD,M
Boys,124.74+,4,Jorge Alvarez,Edcouch-Elsa,124.92,285.76,188.24,215.46,689.46,Single-ply,SBD,M
Boys,124.74,5,Arturo Velasquez,Roma,117.39,272.16,151.95,210.92,635.03,Single-ply,SBD,M
Boys,124.74,6,Apollo Romo,Mercedes,113.94,272.16,108.86,249.48,630.49,Single-ply,SBD,M
Boys,124.74,7,Josh Cavazos,Mission Sharyland,114.12,229.06,140.61,249.48,619.15,Single-ply,SBD,M
Boys,124.74,8,Frank Alvarez,Port Isabel,112.49,165.56,113.4,192.78,471.74,Single-ply,SBD,M
Boys,124.74,9,Faustino Beltran,Roma,120.29,195.04,90.72,174.63,460.4,Single-ply,SBD,M
Boys,124.74,10,Jonathan Bolanos,Hidalgo Early College,111.22,158.76,79.38,149.69,387.82,Single-ply,SBD,M
Boys,124.74,DQ,Keith Mora,Mission Sharyland,121.47,238.14,111.13,,,Single-ply,SBD,M
Boys,124.74,DQ,Raul de la Cruz,Mission,116.03,226.8,,,,Single-ply,SBD,M
Boys,124.74+,1,Rick Perez #2,Donna,136.17,283.5,158.76,233.6,675.85,Single-ply,SBD,M
Boys,124.74+,2,Adrian Cantu,Rio Grande City Grulla,156.58,285.76,163.29,226.8,675.85,Single-ply,SBD,M
Boys,124.74+,3,Danny Young,Mercedes,136.26,272.16,136.08,231.33,639.57,Single-ply,SBD,M
Boys,124.74+,4,Alexander Yanez,Mission,142.07,244.94,163.29,219.99,628.23,Single-ply,SBD,M
Boys,124.74+,5,Alvin Lofton,Edcouch-Elsa,132.9,238.14,154.22,226.8,619.15,Single-ply,SBD,M
Boys,124.74+,6,Abel Cruces,Los Fresnos,129,226.8,170.1,213.19,610.08,Single-ply,SBD,M
Boys,124.74+,7,Luis Garcia,Mission Sharyland,131.36,244.94,131.54,217.72,594.21,Single-ply,SBD,M
Boys,124.74+,8,Dominic Tijerina,Raymondville,151.05,274.42,124.74,192.78,591.94,Single-ply,SBD,M
Boys,124.74+,9,Jose Gonzalez,Roma,150.23,215.46,149.69,215.46,580.6,Single-ply,SBD,M
Boys,124.74+,10,Joe Limon,Los Fresnos,138.07,226.8,120.2,226.8,573.79,Single-ply,SBD,M
Boys,124.74+,DQ,Homero Toscano,Rio Grande City,134.9,195.04,102.06,,,Single-ply,SBD,M
Boys,124.74+,DQ,Rick Hinojosa,Mercedes,125.1,229.06,145.15,,,Single-ply,SBD,M
