Name,WeightClassKg,Division,AgeRange,Sex,Best3SquatKg,Best3BenchKg,Best3DeadliftKg,TotalKg,Event,Equipment,Place
Shirley Scheffler,52,Open,,F,87.5,47.5,135,270,SBD,Single-ply,1
Karin Reagan,52,Senior,30-39,F,65,45,95,205,SBD,Single-ply,1
J. Wiltshire,56,Open,,F,107.5,62.5,142.5,312.5,SBD,Single-ply,1
S. Lindsey,56,Senior,30-39,F,72.5,40,105,217.5,SBD,Single-ply,1
D. Robinson,56,Senior,30-39,F,72.5,37.5,92.5,202.5,SBD,Single-ply,2
B. Batton,60,Open,,F,75,60,125,260,SBD,Single-ply,1
B. Martin,60,Open,,F,90,40,105,235,SBD,Single-ply,2
D. Dreager,60,Open,,F,70,42.5,92.5,205,SBD,Single-ply,3
N. Kennedy,60,Open,,F,42.5,45,115,202.5,SBD,Single-ply,4
Danette Hartmann,67.5,Open,,F,172.5,92.5,192.5,457.5,SBD,Single-ply,1
L. Klein,67.5,Open,,F,80,62.5,137.5,280,SBD,Single-ply,2
Susan Cox,67.5,Senior,30-39,F,107.5,45,150,302.5,SBD,Single-ply,1
P. Jackson,75,Open,,F,105,52.5,125,282.5,SBD,Single-ply,1
J. Gray,75,Open,,F,62.5,45,100,207.5,SBD,Single-ply,2
L. Flanders,75,Senior,30-39,F,92.5,52.5,137.5,282.5,SBD,Single-ply,1
M. Ruble,75+,Open,,F,152.5,65,177.5,395,SBD,Single-ply,1
K. Vernon,67.5,Open,,M,172.5,110,205,487.5,SBD,Single-ply,1
P. Lozano,67.5,Open,,M,147.5,102.5,205,455,SBD,Single-ply,2
R. Wood,67.5,Open,,M,120,70,177.5,367.5,SBD,Single-ply,3
J. Valdez,67.5,Open,,M,100,105,152.5,357.5,SBD,Single-ply,4
Reed Taylor,67.5,Senior,30-39,M,142.5,130,182.5,455,SBD,Single-ply,1
M. Clayron,67.5,Senior,30-39,M,147.5,110,197.5,455,SBD,Single-ply,2
T. Wilson,67.5,Senior,30-39,M,132.5,87.5,192.5,412.5,SBD,Single-ply,3
C. Aubuchon,67.5,Senior,30-39,M,115,105,182.5,402.5,SBD,Single-ply,4
P. Jessup,67.5,Senior,30-39,M,115,72.5,160,347.5,SBD,Single-ply,5
B. Haar,75,Open,,M,265,160,240,665,SBD,Single-ply,1
J. Takemoto,75,Open,,M,227.5,150,230,607.5,SBD,Single-ply,2
G. Schlemmer,75,Open,,M,142.5,130,192.5,465,SBD,Single-ply,3
D. DeLaRocha,75,Open,,M,137.5,125,192.5,455,SBD,Single-ply,4
C. Wohlfeiler,75,Open,,M,165,,,,SBD,Single-ply,DQ
J. Simmons,75,Senior,30-39,M,162.5,117.5,192.5,472.5,SBD,Single-ply,1
E. Gillette,75,Senior,30-39,M,145,107.5,182.5,435,SBD,Single-ply,2
V. Nocron,75,Senior,30-39,M,120,115,170,405,SBD,Single-ply,3
S. Havard,82.5,Open,,M,237.5,160,237.5,635,SBD,Single-ply,1
John Killin,82.5,Open,,M,240,132.5,260,632.5,SBD,Single-ply,2
G. Mattis,82.5,Open,,M,227.5,167.5,237.5,632.5,SBD,Single-ply,3
R. Bocanegro,82.5,Open,,M,222.5,142.5,245,610,SBD,Single-ply,4
K. Foley,82.5,Open,,M,195,140,235,570,SBD,Single-ply,5
F. DeLuna,82.5,Open,,M,175,130,202.5,507.5,SBD,Single-ply,6
Joe Klein,82.5,Open,,M,182.5,105,200,487.5,SBD,Single-ply,8
P. Gallagher,82.5,Open,,M,175,107.5,195,477.5,SBD,Single-ply,9
R. Schaap,82.5,Open,,M,125,152.5,195,472.5,SBD,Single-ply,10
R. Sakaguchi,82.5,Open,,M,182.5,110,205,497.5,SBD,Single-ply,7
J. Stanley,82.5,Open,,M,145,115,180,440,SBD,Single-ply,11
K. Jarvis,82.5,Open,,M,125,115,182.5,422.5,SBD,Single-ply,12
S. Koval,82.5,Senior,30-39,M,240,132.5,282.5,655,SBD,Single-ply,1
Dave DeLuca,82.5,Senior,30-39,M,227.5,137.5,237.5,602.5,SBD,Single-ply,2
W. Morse,82.5,Senior,30-39,M,182.5,130,227.5,540,SBD,Single-ply,3
W. Finch,82.5,Senior,30-39,M,145,75,192.5,412.5,SBD,Single-ply,4
Don Hawley,82.5,Senior,30-39,M,135,95,170,400,SBD,Single-ply,5
C. Thomas,82.5,Masters,40-999,M,210,140,210,560,SBD,Single-ply,1
Danny McDermott,90,Open,,M,225,170,257.5,652.5,SBD,Single-ply,1
D. O'Neil,90,Open,,M,195,185,237.5,617.5,SBD,Single-ply,2
J. Bennett,90,Open,,M,205,150,247.5,602.5,SBD,Single-ply,3
J. Wright,90,Open,,M,220,135,237.5,592.5,SBD,Single-ply,4
Chuck Wheeler,90,Open,,M,220,135,232.5,587.5,SBD,Single-ply,5
C. Herman,90,Open,,M,182.5,160,227.5,570,SBD,Single-ply,6
G. Peterson,90,Open,,M,205,120,217.5,542.5,SBD,Single-ply,8
G. Tomek,90,Open,,M,210,140,205,555,SBD,Single-ply,7
L. Hernandez,90,Senior,30-39,M,282.5,177.5,310,770,SBD,Single-ply,1
T. Harris,90,Senior,30-39,M,237.5,145,265,647.5,SBD,Single-ply,2
D. Yoshida,90,Senior,30-39,M,185,132.5,212.5,530,SBD,Single-ply,3
D. Senecal,90,Senior,30-39,M,182.5,122.5,205,510,SBD,Single-ply,4
C. Sala,90,Senior,30-39,M,120,117.5,207.5,445,SBD,Single-ply,5
William Scheffler,90,Masters,40-999,M,200,150,222.5,572.5,SBD,Single-ply,1
Gordon Tornberg,90,Masters,40-999,M,192.5,125,212.5,530,SBD,Single-ply,2
C. Wells,90,Masters,40-999,M,182.5,,,,SBD,Single-ply,DQ
Jim Moffat,100,Open,,M,265,205,337.5,807.5,SBD,Single-ply,1
Greg Lawson,100,Open,,M,250,152.5,302.5,705,SBD,Single-ply,2
V. Glover,100,Open,,M,222.5,160,260,642.5,SBD,Single-ply,3
J. Hankerson,100,Open,,M,195,122.5,237.5,555,SBD,Single-ply,4
J. Vetrovec,100,Senior,30-39,M,300,190,275,765,SBD,Single-ply,1
J. Brescia,100,Senior,30-39,M,262.5,187.5,290,740,SBD,Single-ply,2
L. Wagner,100,Senior,30-39,M,275,182.5,275,732.5,SBD,Single-ply,3
R. Lopez,100,Senior,30-39,M,215,162.5,242.5,620,SBD,Single-ply,4
Al Bollinger,100,Senior,30-39,M,240,100,230,570,SBD,Single-ply,5
C. Halberstadt,100,Senior,30-39,M,197.5,120,192.5,510,SBD,Single-ply,6
B. Gomez,100,Senior,30-39,M,182.5,130,180,492.5,SBD,Single-ply,7
E. Liggins,100,Senior,30-39,M,130,125,182.5,437.5,SBD,Single-ply,8
D. Travis,100,Masters,40-999,M,160,102.5,187.5,450,SBD,Single-ply,1
G. Fortin,110,Open,,M,337.5,202.5,320,860,SBD,Single-ply,1
Mike Porretta,110,Open,,M,317.5,197.5,317.5,832.5,SBD,Single-ply,2
Brandon Roberts,110,Open,,M,282.5,147.5,290,720,SBD,Single-ply,3
P. Toma,110,Open,,M,210,165,250,625,SBD,Single-ply,4
P. Wirsing,110,Open,,M,205,125,245,575,SBD,Single-ply,5
R. Rodriguez,110,Open,,M,187.5,150,217.5,555,SBD,Single-ply,7
D. Meeks,110,Open,,M,160,117.5,247.5,525,SBD,Single-ply,8
W. Salmon,110,Open,,M,197.5,147.5,222.5,567.5,SBD,Single-ply,6
P. Malae,110,Senior,30-39,M,240,160,265,665,SBD,Single-ply,1
R. Pagal,110,Senior,30-39,M,260,155,250,665,SBD,Single-ply,2
D. Brown,110,Senior,30-39,M,230,140,252.5,622.5,SBD,Single-ply,3
Anthony Evans,110,Senior,30-39,M,205,137.5,250,592.5,SBD,Single-ply,4
Bill Hartmann,110,Masters,40-999,M,262.5,187.5,282.5,732.5,SBD,Single-ply,1
Bob Caves,110,Masters,40-999,M,272.5,147.5,285,705,SBD,Single-ply,2
L. Myers,110,Masters,40-999,M,240,165,267.5,672.5,SBD,Single-ply,3
Dominic Licavoli,125,Open,,M,312.5,187.5,332.5,832.5,SBD,Single-ply,1
J. Erwin,125,Open,,M,250,170,250,670,SBD,Single-ply,2
D. Nalian,125,Open,,M,200,132.5,237.5,570,SBD,Single-ply,3
G. Russell,125,Open,,M,182.5,112.5,205,500,SBD,Single-ply,4
A. Snodgrass,125+,Open,,M,187.5,137.5,210,535,SBD,Single-ply,1
Bill Welcome,125+,Senior,30-39,M,372.5,125,302.5,800,SBD,Single-ply,1
K. Fortune,125+,Senior,30-39,M,125,140,227.5,492.5,SBD,Single-ply,2
