Place,Name,BirthYear,Country,WeightClassKg,BodyweightKg,Squat1Kg,Squat2Kg,Squat3Kg,Best3SquatKg,Bench1Kg,Bench2Kg,Bench3Kg,Best3BenchKg,Deadlift1Kg,Deadlift2Kg,Deadlift3Kg,Best3DeadliftKg,TotalKg,Sex,Division,Event,Equipment
1,Svetlana Tesleva,1975,Russia,44,43.7,135,140,142.5,142.5,70,75,77.5,77.5,140,147.5,152.5,152.5,372.5,F,Open,SBD,Single-ply
2,Anna-Liisa Prinkkala,1955,Finland,44,43.6,130,135,-137.5,135,60,62.5,65,65,140,145,-147.5,145,345,F,Open,SBD,Single-ply
1,Elena Yamskich,1974,Russia,48,47.6,135,142.5,145,145,80,85,-87.5,85,155,162.5,173,173,402.5,F,Open,SBD,Single-ply
2,Raija Anneli Koskinen,1963,Finland,48,47.4,150,157.5,-162.5,157.5,70,75,-77.5,75,140,-145,-160,140,372.5,F,Open,SBD,Single-ply
3,Catrine Stallaert,1963,Belgium,48,47.5,117.5,-122.5,122.5,122.5,42.5,57.5,60,60,137.5,-147.5,-147.5,137.5,320,F,Open,SBD,Single-ply
4,Sabine Guillaume,1963,France,48,46.5,-112.5,112.5,122.5,122.5,57.5,60,-62.5,60,135,-145,-145,135,317.5,F,Open,SBD,Single-ply
5,Silvia Rueda,1975,Spain,48,46.8,105,-115,115,115,42.5,45,-50,45,110,120,-125,120,280,F,Open,SBD,Single-ply
DQ,Malou Thill,1956,Luxembourg,48,47.4,-132.5,-132.5,-132.5,,,,,,,,,,,F,Open,SBD,Single-ply
1,Oksana Belova,1975,Russia,52,52,150,165,175,175,82.5,90,93,93,165,175,183,183,451,F,Open,SBD,Single-ply
2,Leena Jokitalo,1961,Finland,52,50.7,140,-150,152.5,152.5,60,62.5,65,65,147.5,155,157.5,157.5,375,F,Open,SBD,Single-ply
3,Helen Whittington,1972,UK,52,51.9,127.5,-137.5,137.5,137.5,70,75,77.5,77.5,147.5,157.5,-162.5,157.5,372.5,F,Open,SBD,Single-ply
4,Veronique Begue,1972,France,52,51.2,132.5,-137.5,-137.5,132.5,62.5,67.5,-70,67.5,155,165,-172.5,165,365,F,Open,SBD,Single-ply
5,Lesley Manester,1955,UK,52,52,122.5,130,135,135,70,75,77.5,77.5,135,145,152.5,152.5,365,F,Open,SBD,Single-ply
6,Eva Nikander,1967,Finland,52,51.1,125,132.5,-137.5,132.5,72.5,-80,82.5,82.5,132.5,140,147.5,147.5,362.5,F,Open,SBD,Single-ply
7,Yveline Dujardin,1966,Belgium,52,51.3,90,105,112.5,112.5,62.5,70,-75,70,120,130,137.5,137.5,320,F,Open,SBD,Single-ply
8,Sandra Burke,1959,Ireland,52,51.3,112.5,,-122.5,112.5,62.5,-67.5,67.5,67.5,110,120,-130,120,300,F,Open,SBD,Single-ply
1,Irina Orekhova,1971,Russia,56,55.8,150,160,170,170,75,80,82.5,82.5,180,187.5,192.5,192.5,445,F,Open,SBD,Single-ply
2,Gema Orellana,1972,Spain,56,55.9,145,152.5,157.5,157.5,72.5,77.5,-80,77.5,175,182.5,188,188,422.5,F,Open,SBD,Single-ply
3,Svanhild Brekke,1967,Norway,56,55.9,160,165,-167.5,165,100,-102.5,102.5,102.5,-150,150,152.5,152.5,420,F,Open,SBD,Single-ply
4,Suzanne Hagersand,1970,Sweden,56,55.4,157.5,167.5,-172.5,167.5,82.5,-87.5,-87.5,82.5,-160,-160,160,160,410,F,Open,SBD,Single-ply
10,Jessica Kattan,1961,UK,56,55.5,140,145,-150,145,75,77.5,80,80,165,170,-175,170,395,F,Open,SBD,Single-ply
5,Sandra Korte,1970,Germany,56,54.8,127.5,135,142.5,142.5,65,70,-75,70,145,152.5,157.5,157.5,370,F,Open,SBD,Single-ply
6,Brigitte Samson,1966,France,56,55.6,125,135,-137.5,135,80,82.5,85,85,140,147.5,-152.5,147.5,367.5,F,Open,SBD,Single-ply
7,Päivi Haapoja,1965,Finland,56,55.3,135,140,-142.5,140,-70,70,-72.5,70,145,152.5,-157.5,152.5,362.5,F,Open,SBD,Single-ply
8,Mieke Vivijs,1954,Belgium,56,54.8,-130,130,137.5,137.5,62.5,65,-67.5,65,150,157.5,-160,157.5,360,F,Open,SBD,Single-ply
9,Klothilde Herrmann,1956,Germany,56,56,-120,120,127.5,127.5,70,75,80,80,130,145,150,150,357.5,F,Open,SBD,Single-ply
1,Ingeborg Marx,1970,Belgium,60,59.4,185,192.5,197.5,197.5,97.5,102.5,105,105,180,192.5,-202.5,192.5,495,F,Open,SBD,Single-ply
2,Elena Fomina,1969,Russia,60,59.9,-180,-180,180,180,95,100,105,105,167.5,172.5,-177.5,172.5,457.5,F,Open,SBD,Single-ply
3,Ingjerd Pytte-Sagli,1967,Norway,60,59.7,-180,180,185,185,87.5,90,95,95,165,-170,-170,165,445,F,Open,SBD,Single-ply
4,Viktoria Shcherban,1980,Ukraine,60,59.2,-162.5,-162.5,162.5,162.5,80,85,-90,85,160,170,180,180,427.5,F,Open,SBD,Single-ply
5,Jackie Blasbery,1963,UK,60,59.8,142.5,152.5,157.5,157.5,75,80,-82.5,80,175,185,187.5,187.5,425,F,Open,SBD,Single-ply
6,Inger Solveig Blikra,1961,Norway,60,60,-175,175,-180,175,-85,85,-90,85,165,-172.5,-172.5,165,425,F,Open,SBD,Single-ply
7,Anna Restrup,1967,Sweden,60,60,160,170,-175,170,75,80,82.5,82.5,170,-177.5,-177.5,170,422.5,F,Open,SBD,Single-ply
8,Isabelle Leitte,1971,France,60,59.5,150,160,-165,160,70,75,77.5,77.5,160,167.5,-172.5,167.5,405,F,Open,SBD,Single-ply
9,Jackie Traeger,1972,UK,60,58.6,140,150,-160,150,65,-70,-70,65,165,175,-182.5,175,390,F,Open,SBD,Single-ply
10,Hana Takáčová,1954,Czechia,60,59.6,130,-140,140,140,72.5,-75,-75,72.5,130,-135,135,135,347.5,F,Open,SBD,Single-ply
DQ,Svitlana Poplavska,1966,Ukraine,60,59.8,160,170,,170,,,,,,,,,,F,Open,SBD,Single-ply
DQ,Heini Laitinen,1969,Finland,60,59.8,160,165,167.5,167.5,-85,85,-87.5,85,-172.5,-172.5,-172.5,,,F,Open,SBD,Single-ply
1,Lisa Sjöstrand,1966,Sweden,67.5,66.9,190,205,210,210,105,110,-112.5,110,197.5,215,220,220,540,F,Open,SBD,Single-ply
2,Ekaterina Tanokova,1964,Russia,67.5,67.3,200,-210,-210,200,100,-107.5,107.5,107.5,200,-212.5,212.5,212.5,520,F,Open,SBD,Single-ply
3,Antonietta Orsini,1964,Italy,67.5,66.4,190,200,-210,200,107.5,-115,-115,107.5,205,210,-212.5,210,517.5,F,Open,SBD,Single-ply
4,Beate Amdahl,1969,Norway,67.5,66.7,210,-220,-220,210,100,107.5,-112.5,107.5,190,-197.5,-202.5,190,507.5,F,Open,SBD,Single-ply
5,Larysa Ivanova,1963,Ukraine,67.5,67.4,205,-215,-215,205,-110,110,-117.5,110,185,-200,-202.5,185,500,F,Open,SBD,Single-ply
6,Ester Harris,1972,UK,67.5,66,162.5,172.5,177.5,177.5,97.5,102.5,-105,102.5,165,172.5,177.5,177.5,457.5,F,Open,SBD,Single-ply
7,Laurence Morales,1965,Belgium,67.5,63.3,160,-167.5,167.5,167.5,85,90,95,95,165,172.5,177.5,177.5,440,F,Open,SBD,Single-ply
8,Mariet Spronk,1955,Netherlands,67.5,67.2,145,-150,150,150,85,90,-92.5,90,170,180,185,185,425,F,Open,SBD,Single-ply
DQ,Cécile Jamin,1966,France,67.5,65.7,175,-185,-185,175,87.5,-90,92.5,92.5,-190,-197.5,-197.5,,,F,Open,SBD,Single-ply
1,Marina Zhguleva,1975,Russia,75,74.8,190,205,210,210,120,130,132.5,132.5,190,200,-210,200,542.5,F,Open,SBD,Single-ply
2,Sirpa Sandström,1964,Sweden,75,74.6,172.5,180,182.5,182.5,105,107.5,110,110,192.5,200,-205,200,492.5,F,Open,SBD,Single-ply
3,Marleen Nelis,1964,Belgium,75,72.4,165,172.5,175,175,-107.5,107.5,110,110,180,185,187.5,187.5,472.5,F,Open,SBD,Single-ply
4,Tone Edvardsen,1969,Norway,75,69.8,180,185,-190,185,95,-102.5,107.5,107.5,165,172.5,177.5,177.5,470,F,Open,SBD,Single-ply
5,Jolanda Mikic,1970,Netherlands,75,68,170,180,-185,180,90,92.5,95,95,155,162.5,165,165,440,F,Open,SBD,Single-ply
6,Joke van der Meulen,1951,Netherlands,75,69.9,155,165,-170,165,77.5,-82.5,,77.5,165,175,182.5,182.5,425,F,Open,SBD,Single-ply
7,Gabriele Fuchs,1963,Germany,75,74.1,145,155,162.5,162.5,80,87.5,92.5,92.5,160,-170,170,170,425,F,Open,SBD,Single-ply
8,Tina Von Beersel,1963,Belgium,75,70.1,140,152.5,-160,152.5,80,90,-95,90,165,170,-175,170,412.5,F,Open,SBD,Single-ply
9,Jean Wheeler-Taylot,1963,UK,75,72.7,137.5,-145,145,145,72.5,77.5,-80,77.5,150,160,167.5,167.5,390,F,Open,SBD,Single-ply
DQ,Monica O'Brien,1967,UK,75,71.9,172.5,180,-185,180,,,,,,,,,,F,Open,SBD,Single-ply
1,Natalya Rumyantseva,1971,Russia,82.5,81.8,200,215,232.5,232.5,115,125,130,130,200,215,225,225,587.5,F,Open,SBD,Single-ply
2,Anne Sigrid Stiklestad,1975,Norway,82.5,77.4,220,232.5,-237.5,232.5,100,107.5,110,110,180,192.5,200,200,542.5,F,Open,SBD,Single-ply
3,Doris Schumacher,1960,Germany,82.5,76.6,160,172.5,-177.5,172.5,110,117.5,120,120,160,170,,170,462.5,F,Open,SBD,Single-ply
4,Myriam Busselot,1952,Belgium,82.5,75.4,155,-165,165,165,82.5,87.5,90,90,160,167.5,-172.5,167.5,422.5,F,Open,SBD,Single-ply
1,Alla Khotimchenko,1968,Russia,90,86.7,190,-200,200,200,100,110,-115,110,215,230,-240,230,540,F,Open,SBD,Single-ply
2,Angelika Moser,1966,Germany,90,89.4,180,190,200,200,110,-120,120,120,150,160,170,170,490,F,Open,SBD,Single-ply
3,Tarja Rantanen,1957,Finland,90,85.6,165,170,175,175,107.5,115,120,120,160,175,177.5,177.5,472.5,F,Open,SBD,Single-ply
4,Anna Ganenko,1975,Ukraine,90,85.3,160,172.5,182.5,182.5,100,,115,115,150,167.5,172.5,172.5,470,F,Open,SBD,Single-ply
1,Ulrike Herchenhein,1962,Germany,90+,102.9,-210,210,225,225,132.5,140,-145,140,205,217.5,-225,217.5,582.5,F,Open,SBD,Single-ply
2,Anastasia Pavlova,1968,Russia,90+,112.8,200,220,-230,220,120,130,132.5,132.5,200,210,215,215,567.5,F,Open,SBD,Single-ply
3,Jacqueline Pepper,1960,UK,90+,95.2,160,167.5,-170,167.5,,,90,90,,,175,175,432.5,F,Open,SBD,Single-ply
