Division,WeightClassKg,Place,Name,Team,BodyweightKg,Best3SquatKg,Best3BenchKg,Best3DeadliftKg,TotalKg,Equipment,Event,Sex
Boys,51.71,1,Micheal Galvan,Azle,51.71,83.91,38.56,90.72,213.19,Single-ply,SBD,M
Boys,51.71,2,Kyle Hendrix,Weatherford,46.18,72.57,52.16,81.65,206.38,Single-ply,SBD,M
Boys,55.79,1,Zach Cain,Granbury,55.57,136.08,83.91,136.08,356.07,Single-ply,SBD,M
Boys,59.87,2,Nick Thomas #4,Weatherford,55.97,95.25,65.77,124.74,285.76,Single-ply,SBD,M
Boys,59.87,1,D Huctherson,Azle,59.65,158.76,68.04,158.76,385.55,Single-ply,SBD,M
Boys,67.13,2,Jacob Gay,Weatherford,59.92,117.93,61.23,122.47,301.64,Single-ply,SBD,M
Boys,67.13,1,Scott Welch,Weatherford,62.32,147.42,83.91,142.88,374.21,Single-ply,SBD,M
Boys,67.13,2,Chase McBay,Azle,62.6,124.74,65.77,158.76,349.27,Single-ply,SBD,M
Boys,67.13,3,Jesse Valdez,Granbury,66.9,131.54,81.65,127.01,340.19,Single-ply,SBD,M
Boys,82.1,1,Robert Ard,Weatherford,75.02,190.51,124.74,188.24,503.49,Single-ply,SBD,M
Boys,74.84,2,Josh Williams,Azle,68.72,170.1,79.38,156.49,405.97,Single-ply,SBD,M
Boys,74.84,3,Derek Masterson,Azle,72.8,142.88,95.25,156.49,394.63,Single-ply,SBD,M
Boys,74.84,DQ,Taylor Moss,Weatherford,68.08,151.95,,124.74,,Single-ply,SBD,M
Boys,82.1,1,Cesar Lino,Azle,78.93,167.83,106.59,179.17,453.59,Single-ply,SBD,M
Boys,82.1,2,Kyle Petter,Azle,79.38,170.1,106.59,158.76,435.45,Single-ply,SBD,M
Boys,82.1,3,Frankie Valenzuela,Weatherford,81.1,147.42,102.06,174.63,424.11,Single-ply,SBD,M
Boys,82.1,4,Anthony Robinson,Weatherford,81.87,158.76,102.06,151.95,412.77,Single-ply,SBD,M
Boys,82.1,5,Chance Morrison,Azle,81.19,142.88,79.38,154.22,376.48,Single-ply,SBD,M
Boys,82.1,6,Raymond Huntley,Azle,79.15,104.33,74.84,127.01,306.17,Single-ply,SBD,M
Boys,82.1,DQ,Matthew Garner,Weatherford,78.47,149.69,,,,Single-ply,SBD,M
Boys,89.81,1,Tyler Reynolds,Weatherford,86.68,219.99,129.27,215.46,564.72,Single-ply,SBD,M
Boys,89.81,2,Slade Hodge,Weatherford,87.68,151.95,106.59,174.63,433.18,Single-ply,SBD,M
Boys,89.81,3,Mike Milson,Granbury,83.01,154.22,117.93,147.42,419.57,Single-ply,SBD,M
Boys,89.81,4,Wesley May,Weatherford,87.91,149.69,90.72,174.63,415.04,Single-ply,SBD,M
Boys,89.81,5,Bryce Ables,Granbury,84.37,136.08,81.65,140.61,358.34,Single-ply,SBD,M
Boys,89.81,6,Chase Shipman,Granbury,83.01,124.74,90.72,136.08,351.53,Single-ply,SBD,M
Boys,99.79,1,Benito Galvan,Azle,98.43,192.78,120.2,185.97,498.95,Single-ply,SBD,M
Boys,99.79,2,Kent Sanner,Weatherford,99.79,167.83,120.2,188.24,476.27,Single-ply,SBD,M
Boys,99.79,3,Josh Finholt,Weatherford,95.48,161.03,111.13,181.44,453.59,Single-ply,SBD,M
Boys,99.79,4,Blaze Sexton,Weatherford,94.76,165.56,99.79,176.9,442.25,Single-ply,SBD,M
Boys,99.79,5,Tyler Jones,Granbury,99.56,172.37,102.06,149.69,424.11,Single-ply,SBD,M
Boys,99.79,6,Landon Todd,Azle,95.25,142.88,92.99,154.22,390.09,Single-ply,SBD,M
Boys,99.79,7,Tyler Shemberger,Azle,99.79,147.42,95.25,136.08,378.75,Single-ply,SBD,M
Boys,99.79,8,Landon Lambert,Granbury,96.62,136.08,88.45,136.08,360.61,Single-ply,SBD,M
Boys,99.79,9,Johnny Crow,Azle,93.44,102.06,77.11,147.42,326.59,Single-ply,SBD,M
Boys,99.79,DQ,Alex Balboa,Granbury,90.54,127.01,,,,Single-ply,SBD,M
Boys,109.77,1,Brandon Fricke,Azle,109.54,235.87,154.22,240.4,630.49,Single-ply,SBD,M
Boys,109.77,2,Zach Harriman,Weatherford,104.14,174.63,142.88,181.44,498.95,Single-ply,SBD,M
Boys,109.77,3,Destin Dorsett,Weatherford,106.23,156.49,115.67,167.83,439.98,Single-ply,SBD,M
Boys,109.77,4,Austin Bradley,Granbury,102.97,170.1,83.91,170.1,424.11,Single-ply,SBD,M
Boys,109.77,5,Jared John,Azle,104.1,163.29,97.52,142.88,403.7,Single-ply,SBD,M
Boys,109.77,6,Logan Todd,Azle,104.55,142.88,97.52,154.22,394.63,Single-ply,SBD,M
Boys,109.77,7,Preston Bonham,Granbury,100.47,156.49,88.45,147.42,392.36,Single-ply,SBD,M
Boys,109.77,8,Brady McDowell,Azle,104.78,147.42,83.91,158.76,390.09,Single-ply,SBD,M
Boys,109.77,9,Roy Buchanan,Granbury,104.1,140.61,92.99,154.22,387.82,Single-ply,SBD,M
Boys,124.74,1,Andrew Cape,Weatherford,122.88,260.82,158.76,222.26,641.83,Single-ply,SBD,M
Boys,124.74,2,Joesph Pilgrim,Granbury,110.22,226.8,142.88,226.8,596.47,Single-ply,SBD,M
Boys,124.74,3,Hayden Davis,Weatherford,113.44,208.65,138.35,174.63,521.63,Single-ply,SBD,M
Boys,124.74,4,Glynn Evans,Azle,114.53,197.31,113.4,174.63,485.34,Single-ply,SBD,M
Boys,124.74,5,Sammy Stephens,Weatherford,117.75,167.83,102.06,165.56,435.45,Single-ply,SBD,M
Boys,124.74,6,Briley Pena,Granbury,117.57,129.27,79.38,113.4,322.05,Single-ply,SBD,M
Boys,124.74,DQ,Jesse Melendez,Azle,114.99,183.7,,181.44,,Single-ply,SBD,M
Boys,124.74+,1,Alec Puente,Azle,134.04,222.26,120.2,213.19,555.65,Single-ply,SBD,M
Boys,124.74+,2,Corbin Bullington,Azle,157.85,192.78,127.01,195.04,514.83,Single-ply,SBD,M
Boys,124.74+,3,Lincoln Roquemore,Azle,132.68,195.04,111.13,181.44,487.61,Single-ply,SBD,M
Boys,124.74+,4,Jordan Gray,Weatherford,127.41,154.22,104.33,151.95,410.5,Single-ply,SBD,M
