Division,WeightClassKg,Place,Name,Team,BodyweightKg,Best3SquatKg,Best3BenchKg,Best3DeadliftKg,TotalKg,Equipment,Event,Sex,BirthDate
Girls,44.23,1,Annabel Rosas,Seagraves,44.18,104.33,49.9,117.93,272.16,Single-ply,SBD,F,
Girls,44.23,2,Miranda Fleming,Seagraves,43.91,97.52,49.9,102.06,249.48,Single-ply,SBD,F,
Girls,44.23,3,Ashlin Calvio,Big Spring,44,86.18,45.36,106.59,238.14,Single-ply,SBD,F,
Girls,44.23,4,Valeria Parra,Plains,43.82,58.97,24.95,74.84,158.76,Single-ply,SBD,F,
Girls,47.85,1,Hannah Reyes,Lockney,47.36,86.18,52.16,90.72,229.06,Single-ply,SBD,F,
Girls,47.85,2,Destini Mendoza,Andrews,45.9,90.72,38.56,97.52,226.8,Single-ply,SBD,F,
Girls,47.85,3,Olivia Bancroft,Big Spring,46.9,81.65,47.63,97.52,226.8,Single-ply,SBD,F,
Girls,47.85,4,Ailina Tienda,Levelland,47.81,83.91,34.02,88.45,206.38,Single-ply,SBD,F,
Girls,47.85,5,Hailey Castellano,Levelland,47.72,72.57,36.29,83.91,192.78,Single-ply,SBD,F,
Girls,47.85,6,Kayleigh Rios,Seminole,46.45,70.31,31.75,86.18,188.24,Single-ply,SBD,F,
Girls,47.85,7,Natalia Olivares,Plains,46.9,68.04,27.22,74.84,170.1,Single-ply,SBD,F,
Girls,47.85,8,Kaziah Morin,Meadow,45.27,56.7,24.95,56.7,138.35,Single-ply,SBD,F,
Girls,47.85,DQ,Madison Alvarado,Plains,47.63,79.38,27.22,,,Single-ply,SBD,F,
Girls,51.94,1,Kalissa Branch,Seagraves,51.89,145.15,52.16,149.69,347,Single-ply,SBD,F,
Girls,51.94,2,Yudith Aranda,Seagraves,51.89,122.47,72.57,122.47,317.51,Single-ply,SBD,F,
Girls,51.94,3,Kk Minjarez,Seagraves,51.71,113.4,54.43,113.4,281.23,Single-ply,SBD,F,
Girls,51.94,4,Sofie Doolittle,Ralls,49.99,92.99,40.82,95.25,229.06,Single-ply,SBD,F,
Girls,51.94,5,Neidely Veleta,Seminole,49.99,86.18,36.29,83.91,206.38,Single-ply,SBD,F,
Girls,51.94,6,Mercades Trevino,Sudan,51.53,79.38,38.56,83.91,201.85,Single-ply,SBD,F,
Girls,51.94,7,Kaycee Valenzuela,Denver City,49.53,79.38,36.29,83.91,199.58,Single-ply,SBD,F,
Girls,51.94,8,Charis Hall,New Home,51.53,68.04,38.56,90.72,197.31,Single-ply,SBD,F,
Girls,51.94,9,Allison Cope,Seminole,51.89,77.11,31.75,86.18,195.04,Single-ply,SBD,F,
Girls,51.94,10,Jazmyn Sharko,Seminole,49.99,65.77,27.22,65.77,158.76,Single-ply,SBD,F,
Girls,51.94,DQ,Alexa Rodriguez,Plains,48.26,,,,,Single-ply,SBD,F,
Girls,56.02,1,Karisa Minjarez,Seagraves,55.88,131.54,61.23,133.81,326.59,Single-ply,SBD,F,
Girls,56.02,2,Brianna Rodriguez,Seagraves,55.97,117.93,65.77,104.33,288.03,Single-ply,SBD,F,
Girls,56.02,3,Sckylar Alvarez,Levelland,53.89,102.06,68.04,102.06,272.16,Single-ply,SBD,F,
Girls,56.02,4,Arielle Fehr,Seminole,52.53,111.13,45.36,104.33,260.82,Single-ply,SBD,F,
Girls,56.02,5,Ariel Loftin,Levelland,52.89,83.91,54.43,90.72,229.06,Single-ply,SBD,F,
Girls,56.02,6,Aleni Lopez,Levelland,54.52,72.57,43.09,99.79,215.46,Single-ply,SBD,F,
Girls,56.02,7,Syah Acosta,Andrews,52.53,79.38,47.63,83.91,210.92,Single-ply,SBD,F,
Girls,56.02,8,Kaymi Huffman,Seminole,55.79,81.65,38.56,90.72,210.92,Single-ply,SBD,F,
Girls,56.02,9,Lezlee Wright,Brownfield,55.52,65.77,29.48,77.11,172.37,Single-ply,SBD,F,
Girls,56.02,DQ,Samantha Lara,Ralls,55.79,86.18,34.02,,,Single-ply,SBD,F,
Girls,60.1,1,Kadence Esparza,Seagraves,59.06,129.27,68.04,133.81,331.12,Single-ply,SBD,F,
Girls,60.1,2,Delilah Lopez,Andrews,59.51,113.4,72.57,122.47,308.44,Single-ply,SBD,F,
Girls,60.1,3,Zoe Bearden,Plains,57.79,108.86,38.56,120.2,267.62,Single-ply,SBD,F,
Girls,60.1,4,Paulina Porras,Seagraves,58.15,106.59,45.36,115.67,267.62,Single-ply,SBD,F,
Girls,60.1,5,Magdalena Licerio,Friona,59.15,108.86,47.63,90.72,247.21,Single-ply,SBD,F,
Girls,60.1,6,Makayla Griffin,Andrews,59.6,81.65,47.63,104.33,233.6,Single-ply,SBD,F,
Girls,60.1,7,Leslie Ramirez,Seagraves,59.51,79.38,49.9,99.79,229.06,Single-ply,SBD,F,
Girls,60.1,8,Janessa Garcia,Friona,58.06,74.84,38.56,97.52,210.92,Single-ply,SBD,F,
Girls,60.1,9,Jalysa Carrillo,Brownfield,58.06,81.65,40.82,79.38,201.85,Single-ply,SBD,F,
Girls,67.36,1,Kasey Long,Seminole,65.05,140.61,68.04,140.61,349.27,Single-ply,SBD,F,
Girls,67.36,2,Karah Lambert,Seminole,63.96,127.01,58.97,138.35,324.32,Single-ply,SBD,F,
Girls,67.36,3,Mayra Lozano,Seagraves,65.77,136.08,54.43,124.74,315.25,Single-ply,SBD,F,
Girls,67.36,4,Britton Davis,Levelland,67.13,117.93,65.77,120.2,303.91,Single-ply,SBD,F,
Girls,67.36,5,Mal Garcia,Brownfield,61.33,122.47,45.36,120.2,288.03,Single-ply,SBD,F,
Girls,67.36,6,Alexia Salas,Ralls,64.32,108.86,43.09,124.74,276.69,Single-ply,SBD,F,
Girls,67.36,7,Nikaya Ontiveros,Denver City,62.6,113.4,47.63,111.13,272.16,Single-ply,SBD,F,
Girls,67.36,8,Julissa Porras,Seagraves,66.5,111.13,47.63,113.4,272.16,Single-ply,SBD,F,
Girls,67.36,9,Tatum Ovalle,Ralls,61.33,99.79,45.36,102.06,247.21,Single-ply,SBD,F,
Girls,67.36,10,Lorna Faber,Ralls,63.14,81.65,43.09,111.13,235.87,Single-ply,SBD,F,
Girls,67.36,11,Javyn Castillo,Hale Center,66.13,88.45,43.09,97.52,229.06,Single-ply,SBD,F,
Girls,67.36,12,Amber Valderas,Levelland,61.78,81.65,40.82,90.72,213.19,Single-ply,SBD,F,
Girls,67.36,13,Alexa Ortiz,Friona,67.31,70.31,38.56,88.45,197.31,Single-ply,SBD,F,
Girls,67.36,14,Kaley Morin,Meadow,64.41,45.36,24.95,65.77,136.08,Single-ply,SBD,F,
Girls,67.36,DQ,Emily Silva,Levelland,61.96,104.33,56.7,,,Single-ply,SBD,F,
Girls,67.36,DQ,Samantha Valdez,Levelland,64.59,,,,,Single-ply,SBD,F,
Girls,75.07,1,Siria Martinez,Seminole,74.75,181.44,92.99,161.03,435.45,Single-ply,SBD,F,
Girls,75.07,2,Alani Torres,Big Spring,72.76,145.15,70.31,120.2,335.66,Single-ply,SBD,F,
Girls,75.07,3,Heaven Lakenburger,Andrews,73.57,115.67,58.97,131.54,306.17,Single-ply,SBD,F,
Girls,75.07,4,April Caldwell,Big Spring,67.77,106.59,65.77,127.01,299.37,Single-ply,SBD,F,
Girls,75.07,5,Ktb Lashaway,Seminole,68.31,102.06,47.63,113.4,263.08,Single-ply,SBD,F,
Girls,75.07,6,Madisol Gonzales,Hale Center,73.3,102.06,43.09,106.59,251.74,Single-ply,SBD,F,
Girls,75.07,7,Denis Delgado,Plains,69.76,102.06,43.09,95.25,240.4,Single-ply,SBD,F,
Girls,75.07,8,Iris Pitcox,Seminole,71.49,88.45,36.29,99.79,224.53,Single-ply,SBD,F,
Girls,75.07,9,Samantha Rexrode,Ropesville Ropes,67.77,81.65,38.56,81.65,201.85,Single-ply,SBD,F,
Girls,75.07,10,Madison Smith,Ropesville Ropes,68.67,58.97,36.29,77.11,172.37,Single-ply,SBD,F,
Girls,75.07,DQ,Kate Franklin,Plains,68.76,81.65,,,,Single-ply,SBD,F,
Girls,82.33,1,Danielle Fonseca,New Home,81.47,133.81,79.38,129.27,342.46,Single-ply,SBD,F,
Girls,82.33,2,Juanita Garcia,Friona,82.28,129.27,61.23,140.61,331.12,Single-ply,SBD,F,
Girls,82.33,3,Makenzie Swift,Ropesville Ropes,79.29,127.01,43.09,122.47,292.57,Single-ply,SBD,F,
Girls,82.33,4,Mya Romero,Brownfield,77.2,97.52,52.16,102.06,251.74,Single-ply,SBD,F,
Girls,82.33,DQ,Xilanae Walker,Big Spring,76.48,,,,,Single-ply,SBD,F,
Girls,82.33,DQ,Kayen Johnson,Big Spring,82.01,108.86,65.77,,,Single-ply,SBD,F,
Girls,82.33,DQ,Mia Williams,New Home,81.74,102.06,,,,Single-ply,SBD,F,
Girls,90.04,1,Cyra Mireles,Ropesville Ropes,85.37,165.56,102.06,156.49,424.11,Single-ply,SBD,F,
Girls,90.04,2,Yamilette Martinez,Lockney,83.01,156.49,72.57,147.42,376.48,Single-ply,SBD,F,
Girls,90.04,3,Kayla Carroll,New Home,89.99,127.01,90.72,127.01,344.73,Single-ply,SBD,F,
Girls,90.04,4,Sydney Benally,Andrews,84.37,142.88,65.77,131.54,340.19,Single-ply,SBD,F,
Girls,90.04,5,Ahtziri Soltero,Friona,88.63,120.2,43.09,90.72,254.01,Single-ply,SBD,F,
Girls,100.02,1,Jocelyn Gonzales,Big Spring,92.17,172.37,79.38,156.49,408.23,Single-ply,SBD,F,
Girls,100.02,2,Savannah Castillo,Sudan,90.17,142.88,65.77,124.74,333.39,Single-ply,SBD,F,
Girls,100.02,3,Emma Flores,Andrews,91.44,129.27,56.7,115.67,301.64,Single-ply,SBD,F,
Girls,100.02,4,Torya Chico,Friona,97.25,120.2,52.16,129.27,301.64,Single-ply,SBD,F,
Girls,100.02,5,Jacquelyn Marchan,Ropesville Ropes,96.62,127.01,45.36,127.01,299.37,Single-ply,SBD,F,
Girls,100.02,6,Tamber Duran,Levelland,90.26,95.25,65.77,117.93,278.96,Single-ply,SBD,F,
Girls,100.02,7,Judea Jeffcoat,Andrews,90.26,115.67,52.16,97.52,265.35,Single-ply,SBD,F,
Girls,100.02,8,Katy Rojas,Friona,90.99,97.52,47.63,99.79,244.94,Single-ply,SBD,F,
Girls,100.02,9,Alex Marin,Denver City,90.08,88.45,52.16,97.52,238.14,Single-ply,SBD,F,
Girls,100.02,10,Yadhira Madrid,Denver City,97.07,58.97,31.75,83.91,174.63,Single-ply,SBD,F,
Girls,100.02,DQ,Christina Penman,Andrews,98.34,,,,,Single-ply,SBD,F,
Girls,100.02,DQ,Samantha Epke,Levelland,95.53,,,,,Single-ply,SBD,F,
Girls,100.02,DQ,Jhaniah Johnson,Big Spring,93.8,,,,,Single-ply,SBD,F,
Girls,117.71,1,Hailee Widener,Lockney,108.59,154.22,83.91,131.54,369.68,Single-ply,SBD,F,
Girls,117.71,2,Evelyn Sanchez,Big Spring,112.85,140.61,61.23,129.27,331.12,Single-ply,SBD,F,
Girls,117.71,3,Yarely Delgado,Seminole,104.87,129.27,47.63,129.27,306.17,Single-ply,SBD,F,
Girls,117.71,4,Stacy Hawkins,Seminole,115.21,99.79,56.7,113.4,269.89,Single-ply,SBD,F,
Girls,117.71+,1,Alyssia Castillo,Sudan,126.28,61.23,40.82,102.06,204.12,Single-ply,SBD,F,
Girls,117.71+,DQ,Jayden Buckner,Andrews,121.56,,,,,Single-ply,SBD,F,
